<?xml version="1.0" encoding="UTF-8" standalone="no"?>
<!DOCTYPE svg PUBLIC "-//W3C//DTD SVG 1.1//EN" "http://www.w3.org/Graphics/SVG/1.1/DTD/svg11.dtd">
<svg width="100%" height="100%" viewBox="0 0 1280 576" version="1.1" xmlns="http://www.w3.org/2000/svg" xmlns:xlink="http://www.w3.org/1999/xlink" xml:space="preserve" xmlns:serif="http://www.serif.com/" style="fill-rule:evenodd;clip-rule:evenodd;stroke-linejoin:round;stroke-miterlimit:2;">
    <g transform="matrix(0.646288,0,0,0.639241,POSITION,3.14295)">
        <path d="M335.5,360L450,676L221,676L335.5,360Z" style="fill:rgbARROW_COLOR;"/>
    </g>
    <g transform="matrix(1,0,0,1,-60,31.9132)">
        <text x="55.842px" y="152.69px" style="font-family:'OpenSans-Regular', 'Open Sans', sans-serif;font-size:133.333px;">MIN</text>
    </g>
    <g transform="matrix(1,0,0,1,999.148,31.9132)">
        <text x="55.842px" y="152.69px" style="font-family:'OpenSans-Regular', 'Open Sans', sans-serif;font-size:133.333px;">MAX</text>
    </g>
    <g transform="matrix(0.852041,0,0,1,47.8316,-454.73)">
        <rect x="205" y="479" width="980" height="209" style="fill:url(#_Linear1);"/>
    </g>
    <g transform="matrix(1,0,0,1,BOT_TEXT_POS,393.913)">
        <text x="55.842px" y="152.69px" style="font-family:'OpenSans-Regular', 'Open Sans', sans-serif;font-size:133.333px;">BOTTOM</text>
    </g>
    <defs>
        <linearGradient id="_Linear1" x1="0" y1="0" x2="1" y2="0" gradientUnits="userSpaceOnUse" gradientTransform="matrix(980,0,0,209,205,583.5)"><stop offset="0" style="stop-color:rgb(220,53,69);stop-opacity:1"/><stop offset="0.25" style="stop-color:rgb(255,192,10);stop-opacity:1"/><stop offset="0.5" style="stop-color:rgb(39,168,69);stop-opacity:1"/><stop offset="0.75" style="stop-color:rgb(255,192,10);stop-opacity:1"/><stop offset="1" style="stop-color:rgb(220,53,69);stop-opacity:1"/></linearGradient>
    </defs>
</svg>
